{
    "200-100-80": [
        [
            0.79062,
            0.78608
        ],
        [
            0.79087,
            0.78591
        ],
        [
            0.79062,
            0.78575
        ],
        [
            0.79037,
            0.78575
        ],
        [
            0.79075,
            0.78591
        ],
        [
            0.79012,
            0.78591
        ],
        [
            0.79037,
            0.78616
        ],
        [
            0.79075,
            0.78566
        ],
        [
            0.791,
            0.78516
        ],
        [
            0.79187,
            0.78466
        ],
        [
            0.791,
            0.78516
        ],
        [
            0.79125,
            0.78675
        ],
        [
            0.79212,
            0.78575
        ],
        [
            0.79212,
            0.78591
        ],
        [
            0.79125,
            0.78466
        ],
        [
            0.79212,
            0.78475
        ],
        [
            0.791,
            0.78358
        ],
        [
            0.79075,
            0.783
        ],
        [
            0.78987,
            0.78066
        ],
        [
            0.77525,
            0.76783
        ]
    ]
}